При просмотре файлов Skynet было обнаружено следующее фото. Помоги нам понять, что с ним не так.

T-8OO_@L1v3				Text (flag)

54 2d 38 4f 4f 5f 40 4c 31 76 33	Hex

00110101 00110100 00100000 00110010 01100100 
00100000 00110011 00111000 00100000 00110100 
01100110 00100000 00110100 01100110 00100000 
00110101 01100110 00100000 00110100 00110000 Bin
00100000 00110100 01100011 00100000 00110011 
00110001 00100000 00110111 00110110 00100000 
00110011 00110011

FFTTFTFT FFTTFTFF FFTFFFFF FFTTFFTF FTTFFTFF
FFTFFFFF FFTTFFTT FFTTTFFF FFTFFFFF FFTTFTFF
FTTFFTTF FFTFFFFF FFTTFTFF FTTFFTTF FFTFFFFF  0=F
FFTTFTFT FTTFFTTF FFTFFFFF FFTTFTFF FFTTFFFF  1=T
FFTFFFFF FFTTFTFF FTTFFFTT FFTFFFFF FFTTFFTT
FFTTFFFT FFTFFFFF FFTTFTTT FFTTFTTF FFTFFFFF
FFTTFFTT FFTTFFTT

